{
  "httpPort": 5494,
  "allowLocalFilesAccess": false,
  "store": {
    "provider": "fs"
  },
  "blobStorage": {
    "provider": "fs"
  },
  "reportTimeout": 180000,
  "extensions": {
    "authentication": {
      "admin": {
        "username": "admin",
        "password": "password"
      },
      "enabled": false
    },
    "sample-template": {
      "createSamples": true
    },
    "fs-store": {
      "syncModifications": false
    }
  }
}
