{
    "name": "ledgerAccount",
    "creationDate": {
        "$$date": 1615342801793
    },
    "modificationDate": {
        "$$date": 1615342801793
    },
    "shortid": "Y42ehxK",
    "_id": "gh0CJr9zcvn4A470",
    "$entitySet": "folders"
}